12504976;10
12504975;15
12504540;20
12504539;20
12504468;20
12504467;20
12503172;20
12493806;0
12493805;10
12493804;15
12492674;20
12492671;20
12492670;20
12476498;20
12473320;20
12470612;15
12468989;20
12467532;15
12467483;20
12462809;20
12460622;20
12458653;0
12457367;20
12457142;10
12453917;20
12448969;20
12444214;20
12438548;20
12437622;20
12436362;20
12436345;15
12431083;20
12430109;20
12427945;10
12427104;0
12420482;20
12408607;15
12406794;0
12402521;15
12402471;20
12401565;20
12401210;10
12394778;15
12383468;20
12367332;20
12367078;10
12364292;20
12361262;20
12361261;20
12360761;15
12356061;15
12355066;20
12354688;20
12352517;15
12350676;20
12349184;20
12346228;15
12342450;0
12336684;20
12332373;15
12324161;20
12321904;0
12320843;20
12320825;20
12314088;20
12313417;0
12313331;20
12312766;0
12300709;15
12290173;20
12288959;20
12286425;20
12278326;0
12277681;20
12276379;20
12267656;20
12263518;10
12261596;15
12259606;20
12250582;15
12250331;15
12249881;15
12249637;15
12249544;20
12245723;20
12244900;15
12243197;0
12242558;15
12242221;10
12235462;15
12232405;15
12232399;10
12232387;15
12232382;15
12232309;20
12232302;15
12232288;15
12225099;15
12217546;20
12216282;10
12215314;10
12214624;20
12209607;20
12206196;20
12203002;20
12201490;15
12197572;10
12194092;10
12192703;20
12192680;15
12190660;15
12190614;15
12189685;15
12187653;0
12185423;20
12182698;15
12182164;10
12176846;15
12172667;10
12168019;15
12167819;15
12167503;20
12166173;20
12166169;20
12165809;0
12164224;0
12159576;15
12154180;15
12153155;10
12152856;20
12151597;20
12151395;10
12138271;15
12137192;20
12130350;15
12124458;15
12121594;15
12095053;20
12095048;0
12095019;20
11966445;10
11258477;15
11113379;10
12424865;15
12359938;15
12244900;15
12468994;15
12468985;15
